max98091.c:690:13:configure_biquad_coefficients.isra.0.constprop	16	static
max98091.c:49:6:max98091_init	32	static
max98091.c:118:6:max98091_reset_codec	0	static
max98091.c:127:6:max98091_hp_increase_volume	16	static
max98091.c:144:6:max98091_hp_decrease_volume	16	static
max98091.c:161:6:max98091_unmute_volume	4	static
max98091.c:168:6:max98091_mute_volume	4	static
max98091.c:175:6:max98091_hp_set_volume	24	static
max98091.c:190:6:max98091_is_microphone_present	16	static
max98091.c:199:6:max98091_is_jack_present	24	static
max98091.c:209:6:max98091_enable_mic_trrs	16	static
max98091.c:218:6:max98091_disable_mic_trrs	16	static
max98091.c:227:6:max98091_enable_output	4	static
max98091.c:241:6:max98091_disable_output	0	static
max98091.c:246:6:max98091_reset_codec_irq	16	static
