circular_queue.c:24:6:circular_queue_critical_section_init	4	static
circular_queue.c:30:6:circular_queue_init	4	static
circular_queue.c:41:8:circular_queue_front_raw	0	static
circular_queue.c:46:7:circular_queue_front	16	static
circular_queue.c:61:7:circular_queue_get_free_slot_raw	0	static
circular_queue.c:66:7:circular_queue_get_free_slot	16	static
circular_queue.c:81:6:circular_queue_enqueue_raw	4	static
circular_queue.c:91:6:circular_queue_enqueue	16	static
circular_queue.c:106:6:circular_queue_dequeue_raw	4	static
circular_queue.c:116:6:circular_queue_dequeue	16	static
circular_queue.c:131:10:circular_queue_size	0	static
circular_queue.c:136:10:circular_queue_capacity	0	static
circular_queue.c:141:10:circular_queue_free_space	0	static
circular_queue.c:146:6:circular_queue_is_empty	0	static
circular_queue.c:151:6:circular_queue_is_full	0	static
