resampling.c:285:17:interp_linear	32	static
resampling.c:348:13:update_last_sample	16	static
resampling.c:244:17:resample_bypass	32	static
resampling.c:31:21:resampling_init	48	static
resampling.c:72:6:resampling_start	0	static
resampling.c:78:10:resample	64	static
resampling.c:100:21:resample_get_state	0	static
resampling.c:105:9:resample_get_channel_count	0	static
