link_gain_loop.c:41:6:link_gain_loop_update	4	static
link_gain_loop.c:68:9:link_gain_loop_get_gain_value	0	static
link_gain_loop.c:73:10:link_gain_loop_get_min_tenth_db	0	static
link_gain_loop.c:78:10:link_gain_loop_get_rnsi_tenth_db	0	static
link_gain_loop.c:83:6:link_gain_loop_reset_gain_index	0	static
