sr1000_access.c:15:6:sr1000_access_open	0	static
sr1000_access.c:20:6:sr1000_access_close	0	static
sr1000_access.c:25:6:sr1000_access_burst_end	8	static
sr1000_access.c:31:6:sr1000_access_burst_read	24	static
sr1000_access.c:41:6:sr1000_access_burst_write	24	static
sr1000_access.c:49:6:sr1000_access_write_reg	24	static
sr1000_access.c:57:9:sr1000_access_read_reg	24	static
sr1000_access.c:69:6:sr1000_access_wait_for_bit_set	24	static
sr1000_access.c:78:6:sr1000_access_wait_for_bit_clear	24	static
