uwb_circular_buffer.c:26:6:uwb_circ_buff_init	8	static
uwb_circular_buffer.c:51:6:uwb_circ_buff_in	32	static
uwb_circular_buffer.c:102:6:uwb_circ_buff_out	32	static
uwb_circular_buffer.c:145:6:uwb_circ_buff_is_empty	0	static
uwb_circular_buffer.c:155:6:uwb_buff_is_full	0	static
uwb_circular_buffer.c:165:6:uwb_buff_num_elements	0	static
uwb_circular_buffer.c:176:6:uwb_buff_free_space	0	static
