ranging_algorithm.c:303:13:ranging_algorithm_get_distance_raw_fixed_point	1088	static
ranging_algorithm.c:341:13:ranging_algorithm_get_distance_data_corrected_fixed_point	1096	static
ranging_algorithm.c:209:13:ranging_algorithm_get_distance_raw	1048	static
ranging_algorithm.c:237:13:ranging_algorithm_get_distance_data_corrected	1088	static
ranging_algorithm.c:38:6:ranging_algorithm_init	32	static
ranging_algorithm.c:93:6:ranging_algorithm_append	48	static
ranging_algorithm.c:119:7:ranging_algorithm_calculate_float	16	static
ranging_algorithm.c:137:9:ranging_algorithm_calculate_qnum	16	static
ranging_algorithm.c:154:6:ranging_algorithm_is_buffer_full	0	static
ranging_algorithm.c:165:6:ranging_algorithm_set_avg_size	0	static
ranging_algorithm.c:174:6:ranging_algorithm_clear	0	static
ranging_algorithm.c:182:9:ranging_algorithm_update_powerup_delay	8	static
