bsp_it.c:87:13:default_irq_callback	0	static
bsp_it.c:36:6:bsp_set_usb_detect_callback	0	static
bsp_it.c:41:6:bsp_set_radio_irq_callback	0	static
bsp_it.c:46:6:bsp_set_radio_dma_rx_callback	0	static
bsp_it.c:51:6:bsp_set_app_timer_callback	0	static
bsp_it.c:56:6:bsp_set_pendsv_callback	0	static
bsp_it.c:61:6:bsp_enter_critical	0	static,ignoring_inline_asm
bsp_it.c:70:6:bsp_exit_critical	0	static,ignoring_inline_asm
bsp_it.c:79:6:Error_Handler	0	static
bsp_it.c:94:6:HardFault_Handler	0	static
bsp_it.c:103:6:MemManage_Handler	0	static
bsp_it.c:112:6:BusFault_Handler	0	static
bsp_it.c:122:6:UsageFault_Handler	0	static
bsp_it.c:131:6:SVC_Handler	0	static
bsp_it.c:138:6:DebugMon_Handler	0	static
bsp_it.c:145:6:PendSV_Handler	0	static
bsp_it.c:153:6:SysTick_Handler	0	static
bsp_it.c:160:6:EXTI0_IRQHandler	8	static
bsp_it.c:168:6:EXTI2_IRQHandler	0	static
bsp_it.c:176:6:DMA1_Channel2_IRQHandler	12	static
bsp_it.c:196:6:DMA1_Channel3_IRQHandler	0	static
bsp_it.c:204:6:DMA1_Channel4_IRQHandler	0	static
bsp_it.c:211:6:DMA1_Channel5_IRQHandler	0	static
bsp_it.c:218:6:DMA1_Channel6_IRQHandler	0	static
bsp_it.c:225:6:USB_LP_IRQHandler	0	static
bsp_it.c:232:6:TIM2_IRQHandler	8	static
bsp_it.c:240:6:TIM20_UP_IRQHandler	0	static
bsp_it.c:248:6:LPUART1_IRQHandler	0	static
