audio_api.c:307:13:init_audio_queue	32	static
audio_api.c:442:13:enqueue_producer_node	16	static
audio_api.c:499:17:consume	16	static
audio_api.c:466:17:produce.isra.0	16	static
audio_api.c:35:6:audio_core_init	32	static
audio_api.c:41:6:audio_pipeline_init	24	static
audio_api.c:83:6:audio_endpoint_init	16	static
audio_api.c:92:6:audio_pipeline_add_processing	4	static
audio_api.c:105:6:audio_pipeline_produce	16	static
audio_api.c:141:6:audio_pipeline_consume	24	static
audio_api.c:173:21:audio_pipeline_get_stats	0	static
audio_api.c:181:10:audio_pipeline_get_producer_buffer_load	0	static
audio_api.c:186:10:audio_pipeline_get_consumer_buffer_load	0	static
audio_api.c:191:10:audio_pipeline_get_consumer_buffer_overflow_count	0	static
audio_api.c:196:10:audio_pipeline_get_consumer_buffer_underflow_count	0	static
audio_api.c:201:6:audio_pipeline_reset_stats	0	static
audio_api.c:215:6:audio_pipeline_start	16	static
audio_api.c:232:6:audio_pipeline_stop	16	static
audio_api.c:246:10:audio_processing_ctrl	0	static
audio_api.c:251:6:audio_pipeline_process	40	static
