link_tdma_sync.c:29:6:link_tdma_sync_init	32	static
link_tdma_sync.c:62:6:link_tdma_sync_update_tx	12	static
link_tdma_sync.c:79:6:link_tdma_sync_update_rx	12	static
link_tdma_sync.c:96:6:link_tdma_sync_slave_adjust	16	static
link_tdma_sync.c:110:6:link_tdma_sync_slave_find	16	static
link_tdma_sync.c:124:10:link_tdma_sync_get_sleep_cycles	0	static
link_tdma_sync.c:129:10:link_tdma_sync_get_timeout	0	static
link_tdma_sync.c:134:10:link_tdma_sync_get_pwr_up	0	static
link_tdma_sync.c:139:6:link_tdma_sync_is_slave_synced	0	static
