sr1000_api.c:85:6:uwb_reset	16	static
sr1000_api.c:65:6:uwb_init	24	static
sr1000_api.c:93:6:uwb_calibrate	16	static
sr1000_api.c:125:6:uwb_config_frame	16	static
sr1000_api.c:156:6:uwb_config_syncword	32	static
sr1000_api.c:171:6:uwb_enable_irq	16	static
sr1000_api.c:186:6:uwb_set_crc	16	static
sr1000_api.c:197:6:uwb_set_local_address	24	static
sr1000_api.c:226:6:uwb_disable_address_filter	8	static
sr1000_api.c:239:6:uwb_set_destination_address	24	static
sr1000_api.c:257:6:uwb_set_sleep_level	16	static
sr1000_api.c:279:6:uwb_config_channel	0	static
sr1000_api.c:296:6:uwb_select_channel	16	static
sr1000_api.c:303:6:uwb_enable_auto_reply	8	static
sr1000_api.c:314:6:uwb_disable_auto_reply	8	static
sr1000_api.c:325:6:uwb_fill_tx_fifo	24	static
sr1000_api.c:332:6:uwb_set_tx_fifo_thresh	16	static
sr1000_api.c:341:6:uwb_set_rx_fifo_thresh	16	static
sr1000_api.c:350:6:uwb_set_receiver_gain	16	static
sr1000_api.c:357:16:uwb_get_events	16	static
sr1000_api.c:371:17:uwb_get_frame_quality	16	static
sr1000_api.c:382:14:uwb_get_phases_info	24	static
sr1000_api.c:421:6:uwb_start_transmission	8	static
sr1000_api.c:428:6:uwb_receiver_on	8	static
sr1000_api.c:436:9:uwb_read	24	static
sr1000_api.c:457:9:uwb_get_rx_payload_size	16	static
sr1000_api.c:468:6:uwb_sleep	8	static
sr1000_api.c:475:6:uwb_wakeup	8	static
sr1000_api.c:484:6:uwb_flush_tx_buffer	8	static
sr1000_api.c:491:6:uwb_flush_rx_buffer	8	static
sr1000_api.c:498:6:uwb_is_irq_assert	8	static
sr1000_api.c:514:6:uwb_write_register	16	static
sr1000_api.c:402:6:uwb_send	24	static
sr1000_api.c:413:6:uwb_send_broadcast	4	static
sr1000_api.c:521:9:uwb_read_register	24	static
sr1000_api.c:532:6:uwb_select_external_pll_clk_source	8	static
sr1000_api.c:544:6:uwb_select_internal_pll_clk_source	8	static
sr1000_api.c:556:6:uwb_select_external_xtal_clk_source	8	static
sr1000_api.c:568:6:uwb_select_internal_xtal_clk_source	8	static
sr1000_api.c:580:6:uwb_cca_init	16	static
sr1000_api.c:616:6:uwb_cca_update_threshold	16	static
sr1000_api.c:669:6:uwb_cca_update_rnsi_offset	16	static
sr1000_api.c:682:6:uwb_cca_update_retry_time	8	static
sr1000_api.c:691:6:uwb_cca_enable	8	static
sr1000_api.c:706:6:uwb_cca_disable	8	static
sr1000_api.c:720:6:uwb_set_pll_wait_time	16	static
