wps_stats.c:70:13:save_object	48	static
wps_stats.c:78:10:wps_stats_get_payload_sent_count	32	static
wps_stats.c:87:10:wps_stats_get_payload_ack_count	32	static
wps_stats.c:96:10:wps_stats_get_payload_dropped_count	32	static
wps_stats.c:105:10:wps_stats_get_payload_ack_ratio	32	static
wps_stats.c:114:10:wps_stats_get_payload_received_count	32	static
wps_stats.c:123:10:wps_stats_get_payload_overrun_count	32	static
wps_stats.c:132:10:wps_stats_get_empty_count	120	static
wps_stats.c:143:10:wps_stats_get_rx_sync_count	120	static
wps_stats.c:154:7:wps_stats_get_tx_link_usage_ratio	120	static
wps_stats.c:169:7:wps_stats_get_rx_link_usage_ratio	120	static
wps_stats.c:184:7:wps_stats_get_tx_datarate	32	static
wps_stats.c:197:7:wps_stats_get_rx_datarate	32	static
wps_stats.c:210:10:wps_stats_get_phy_rssi_avg	64	static
wps_stats.c:219:10:wps_stats_get_phy_rnsi_avg	64	static
wps_stats.c:228:9:wps_stats_get_phy_margin_avg	64	static
wps_stats.c:237:10:wps_stats_get_phy_ack_frame_count	64	static
wps_stats.c:246:10:wps_stats_get_phy_nack_frame_count	64	static
wps_stats.c:255:10:wps_stats_get_phy_received_frame_count	64	static
wps_stats.c:264:10:wps_stats_get_phy_missing_frame_count	64	static
wps_stats.c:273:10:wps_stats_get_phy_rejected_frame_count	64	static
wps_stats.c:282:10:wps_stats_get_phy_duplicated_frame_count	32	static
wps_stats.c:291:10:wps_stats_get_phy_retry_frame_count	32	static
wps_stats.c:300:7:wps_stats_get_phy_ack_frame_ratio	72	static
wps_stats.c:313:7:wps_stats_get_phy_nack_frame_ratio	72	static
wps_stats.c:326:7:wps_stats_get_phy_received_frame_ratio	72	static
wps_stats.c:339:7:wps_stats_get_phy_missing_frame_ratio	80	static
wps_stats.c:352:7:wps_stats_get_phy_rejected_frame_ratio	72	static
wps_stats.c:365:7:wps_stats_get_phy_mrr	64	static
wps_stats.c:379:7:wps_stats_get_phy_per	64	static
wps_stats.c:394:10:wps_stats_get_rssi_avg	64	static
wps_stats.c:403:10:wps_stats_get_rnsi_avg	64	static
wps_stats.c:412:9:wps_stats_get_margin_avg	64	static
wps_stats.c:421:10:wps_stats_get_ack_frame_count	64	static
wps_stats.c:430:10:wps_stats_get_nack_frame_count	64	static
wps_stats.c:439:10:wps_stats_get_received_frame_count	64	static
wps_stats.c:448:10:wps_stats_get_missing_frame_count	64	static
wps_stats.c:457:10:wps_stats_get_rejected_frame_count	64	static
wps_stats.c:466:10:wps_stats_get_duplicated_frame_count	0	static
wps_stats.c:475:10:wps_stats_get_retry_frame_count	0	static
wps_stats.c:484:7:wps_stats_get_ack_frame_ratio	72	static
wps_stats.c:497:7:wps_stats_get_nack_frame_ratio	72	static
wps_stats.c:510:7:wps_stats_get_received_frame_ratio	72	static
wps_stats.c:523:7:wps_stats_get_missing_frame_ratio	80	static
wps_stats.c:536:7:wps_stats_get_rejected_frame_ratio	72	static
wps_stats.c:549:7:wps_stats_get_mrr	64	static
wps_stats.c:563:7:wps_stats_get_per	64	static
wps_stats.c:578:10:wps_stats_get_chan_rssi_avg	64	static
wps_stats.c:587:10:wps_stats_get_chan_rnsi_avg	64	static
wps_stats.c:596:9:wps_stats_get_chan_margin_avg	64	static
wps_stats.c:605:10:wps_stats_get_chan_ack_frame_count	64	static
wps_stats.c:614:10:wps_stats_get_chan_nack_frame_count	64	static
wps_stats.c:623:10:wps_stats_get_chan_received_frame_count	64	static
wps_stats.c:632:10:wps_stats_get_chan_missing_frame_count	64	static
wps_stats.c:641:10:wps_stats_get_chan_rejected_frame_count	64	static
wps_stats.c:650:7:wps_stats_get_chan_ack_frame_ratio	72	static
wps_stats.c:663:7:wps_stats_get_chan_nack_frame_ratio	72	static
wps_stats.c:676:7:wps_stats_get_chan_received_frame_ratio	72	static
wps_stats.c:689:7:wps_stats_get_chan_missing_frame_ratio	80	static
wps_stats.c:702:7:wps_stats_get_chan_rejected_frame_ratio	72	static
wps_stats.c:715:7:wps_stats_get_chan_mrr	64	static
wps_stats.c:729:7:wps_stats_get_chan_per	64	static
wps_stats.c:744:6:wps_stats_reset	24	static
