bsp_clock.c:46:6:bsp_set_system_clock	96	static
bsp_clock.c:72:10:bsp_get_system_clock_freq	0	static
bsp_clock.c:77:6:bsp_usb_clock_deinit	64	static
bsp_clock.c:88:6:bsp_init_ext_osc_clk	32	static
bsp_clock.c:93:6:bsp_deinit_ext_osc_clk	0	static
bsp_clock.c:98:6:bsp_enable_ext_osc_clk	0	static
bsp_clock.c:103:6:bsp_disable_ext_osc_clk	0	static
bsp_clock.c:108:6:bsp_init_xtal_clk	80	static
bsp_clock.c:119:6:bsp_enable_xtal_clk	8	static
bsp_clock.c:126:6:bsp_disable_xtal_clk	8	static
bsp_clock.c:113:6:bsp_deinit_xtal_clk	8	static
bsp_clock.c:139:6:bsp_init_usb_clock	152	static
bsp_clock.c:133:6:SystemClock_Config	8	static
bsp_clock.c:160:6:HAL_MspInit	8	static
