bsp_timer.c:24:10:bsp_get_tick	0	static
bsp_timer.c:29:6:bsp_delay_ms	0	static
bsp_timer.c:34:10:bsp_get_tick_us	0	static
bsp_timer.c:39:6:bsp_delay_us	0	static
bsp_timer.c:46:10:bsp_get_free_running_timer_tick_ms	16	static
bsp_timer.c:66:6:bsp_app_timer_init	24	static
bsp_timer.c:89:6:bsp_app_timer_start	8	static
bsp_timer.c:96:6:bsp_app_timer_stop	8	static
