link_protocol.c:18:6:link_protocol_init	8	static
link_protocol.c:31:6:link_protocol_add	12	static
link_protocol.c:52:6:link_protocol_send_buffer	32	static
link_protocol.c:67:6:link_protocol_receive_buffer	24	static
