wps.c:113:6:wps_init_critical_section	0	static
wps.c:118:6:wps_radio_init	40	static
wps.c:136:6:wps_radio_calibrate	8	static
wps.c:142:6:wps_init_callback_queue	0	static
wps.c:151:6:wps_init	64	static
wps.c:191:6:wps_set_coordinator_address	0	static
wps.c:196:6:wps_phy_init	16	static
wps.c:206:6:wps_config_node	32	static
wps.c:272:6:wps_config_network_schedule	4	static
wps.c:282:6:wps_reset_schedule	0	static
wps.c:287:6:wps_config_network_channel_sequence	0	static
wps.c:293:6:wps_enable_concurrency	0	static
wps.c:299:6:wps_disable_concurrency	0	static
wps.c:304:6:wps_enable_fast_sync	16	static
wps.c:311:6:wps_disable_fast_sync	0	static
wps.c:316:6:wps_enable_internal_connection	64	static
wps.c:344:6:wps_disable_internal_connection	0	static
wps.c:351:6:wps_create_connection	40	static
wps.c:390:6:wps_connection_set_timeslot	8	static
wps.c:406:6:wps_connection_config_channel	4	static
wps.c:412:6:wps_connection_config_frame	0	static
wps.c:418:6:wps_connection_enable_ack	0	static
wps.c:423:6:wps_connection_disable_ack	0	static
wps.c:428:6:wps_connection_enable_stop_and_wait_arq	24	static
wps.c:441:6:wps_connection_disable_stop_and_wait_arq	16	static
wps.c:446:6:wps_connection_enable_auto_sync	0	static
wps.c:451:6:wps_connection_disable_auto_sync	0	static
wps.c:456:6:wps_connection_enable_fixed_payload_size	0	static
wps.c:464:6:wps_connection_enable_cca	24	static
wps.c:473:6:wps_connection_disable_cca	16	static
wps.c:478:6:wps_connect	24	static
wps.c:520:6:wps_disconnect	24	static
wps.c:561:6:wps_reset	8	static
wps.c:567:6:wps_halt	0	static
wps.c:572:6:wps_resume	0	static
wps.c:577:6:wps_get_free_slot	8	static
wps.c:591:6:wps_send	24	static
wps.c:618:14:wps_read	16	static
wps.c:636:6:wps_read_done	0	static
wps.c:641:10:wps_get_fifo_size	0	static
wps.c:646:10:wps_get_fifo_free_space	0	static
wps.c:651:13:wps_get_error	0	static
