star_network.c:483:13:conn_tx_ack_callback	0	static
star_network.c:620:13:app_error_handler	0	static
star_network.c:594:13:usb_printf	80	static
star_network.c:506:13:conn_rx_callback	24	static
star_network.c:569:13:radio_callback_cb	0	static
star_network.c:561:13:radio_dma_spi_cb	8	static
star_network.c:550:13:radio_irq_cb	8	static
star_network.c:576:13:usb_gpio_callback	16	static
star_network.c:497:13:conn_tx_nack_callback	0	static
star_network.c:89:5:main	1128	static
