ranging_algorithm_private.c:33:6:ranging_algorithm_prv_init	16	static
ranging_algorithm_private.c:53:6:ranging_algorithm_prv_set_utils	8	static
ranging_algorithm_private.c:61:6:ranging_algorithm_prv_set_raw_data	0	static
ranging_algorithm_private.c:68:6:ranging_algorithm_prv_set_raw_del_prop	0	static
ranging_algorithm_private.c:74:6:ranging_algorithm_prv_set_prop_del_corrected	0	static
ranging_algorithm_private.c:81:6:ranging_algorithm_prv_set_last_distance_data	0	static
ranging_algorithm_private.c:87:6:ranging_algorithm_prv_set_prop_del_avg	0	static
ranging_algorithm_private.c:92:6:ranging_algorithm_prv_print_column_label	176	static
ranging_algorithm_private.c:106:6:ranging_algorithm_prv_print	176	static
ranging_algorithm_private.c:121:6:ranging_algorithm_prv_increment_idx	0	static
ranging_algorithm_private.c:128:6:ranging_algorithm_prv_is_buf_full	0	static
ranging_algorithm_private.c:139:6:ranging_algorithm_prv_is_buf_empty	0	static
