link_random_datarate_offset.c:24:6:link_rdo_init	0	static
link_random_datarate_offset.c:36:6:link_rdo_send_offset	4	static
link_random_datarate_offset.c:48:6:link_rdo_set_offset	4	static
link_random_datarate_offset.c:59:10:link_rdo_get_offset	0	static
