bsp_usb.c:20:6:bsp_usb_cdc_init_rx_cb	0	static
bsp_usb.c:25:6:bsp_usb_cdc_init_tx_cb	0	static
bsp_usb.c:30:6:bsp_usb_cdc_init_init_cb	0	static
bsp_usb.c:35:6:bsp_usb_cdc_init	8	static
bsp_usb.c:57:6:bsp_cdc_usb_deinit	8	static
bsp_usb.c:66:6:bsp_cdc_usb_connect	16	static
bsp_usb.c:79:6:bsp_cdc_usb_disconnect	8	static
bsp_usb.c:92:6:bsp_is_usb_detected	8	static
bsp_usb.c:101:9:bsp_usb_cdc_putc	16	static
bsp_usb.c:106:9:bsp_usb_cdc_send_buf	8	static
bsp_usb.c:111:6:bsp_usb_enter_critical	0	static,ignoring_inline_asm
bsp_usb.c:116:6:bsp_usb_exit_critical	0	static,ignoring_inline_asm
