syscalls.c:72:6:initialise_monitor_handles	0	static
syscalls.c:76:5:_getpid	0	static
syscalls.c:81:5:_kill	8	static
syscalls.c:89:6:_exit	8	static
syscalls.c:95:27:_read	16	static
syscalls.c:108:27:_write	16	static
syscalls.c:121:9:_sbrk	8	static
syscalls.c:144:5:_close	0	static
syscalls.c:151:5:_fstat	0	static
syscalls.c:158:5:_isatty	0	static
syscalls.c:164:5:_lseek	0	static
syscalls.c:172:5:_open	0	static
syscalls.c:180:5:_wait	8	static
syscalls.c:187:5:_unlink	8	static
syscalls.c:194:5:_times	0	static
syscalls.c:200:5:_stat	0	static
syscalls.c:207:5:_link	8	static
syscalls.c:215:5:_fork	8	static
syscalls.c:221:5:_execve	8	static
