bsp_uart.c:24:6:bsp_exp_uart_write_blocking	8	static
bsp_uart.c:32:6:bsp_exp_uart_write_non_blocking	0	static
bsp_uart.c:40:6:bsp_exp_uart_read_blocking	8	static
bsp_uart.c:50:6:bsp_exp_uart_read_byte_non_blocking	8	static
bsp_uart.c:55:6:HAL_UART_RxCpltCallback	0	static
bsp_uart.c:68:6:HAL_UART_TxCpltCallback	0	static
bsp_uart.c:81:6:bsp_set_stlink_uart_tx_callback	0	static
bsp_uart.c:86:6:bsp_set_stlink_uart_rx_callback	0	static
bsp_uart.c:91:6:bsp_set_exp_uart_tx_callback	0	static
bsp_uart.c:96:6:bsp_set_exp_uart_rx_callback	0	static
bsp_uart.c:106:6:HAL_UART_MspInit	56	static
bsp_uart.c:179:6:HAL_UART_MspDeInit	0	static
